EESchema Schematic File Version 4
EELAYER 30 0
EELAYER END
$Descr A4 11693 8268
encoding utf-8
Sheet 1 1
Title ""
Date ""
Rev ""
Comp ""
Comment1 ""
Comment2 ""
Comment3 ""
Comment4 ""
$EndDescr
$Comp
L Device:R_US R1
U 1 1 5E26E242
P 4400 2650
F 0 "R1" H 4468 2696 50  0000 L CNN
F 1 "47K" H 4468 2605 50  0000 L CNN
F 2 "Resistor_THT:R_Axial_DIN0204_L3.6mm_D1.6mm_P7.62mm_Horizontal" V 4440 2640 50  0001 C CNN
F 3 "~" H 4400 2650 50  0001 C CNN
	1    4400 2650
	0    1    1    0   
$EndComp
$Comp
L Amplifier_Operational:TL072 U1
U 1 1 5E270EBC
P 5200 2750
F 0 "U1" H 5200 2383 50  0000 C CNN
F 1 "TL072" H 5200 2474 50  0000 C CNN
F 2 "Package_DIP:DIP-8_W7.62mm_Socket" H 5200 2750 50  0001 C CNN
F 3 "http://www.ti.com/lit/ds/symlink/tl071.pdf" H 5200 2750 50  0001 C CNN
	1    5200 2750
	1    0    0    1   
$EndComp
$Comp
L Amplifier_Operational:TL072 U1
U 2 1 5E272150
P 6800 2750
F 0 "U1" H 6800 2383 50  0000 C CNN
F 1 "TL072" H 6800 2474 50  0000 C CNN
F 2 "Package_DIP:DIP-8_W7.62mm_Socket" H 6800 2750 50  0001 C CNN
F 3 "http://www.ti.com/lit/ds/symlink/tl071.pdf" H 6800 2750 50  0001 C CNN
	2    6800 2750
	1    0    0    1   
$EndComp
$Comp
L Amplifier_Operational:TL072 U1
U 3 1 5E2770E3
P 5950 4600
F 0 "U1" H 5908 4646 50  0000 L CNN
F 1 "TL072" H 5908 4555 50  0000 L CNN
F 2 "Package_DIP:DIP-8_W7.62mm_Socket" H 5950 4600 50  0001 C CNN
F 3 "http://www.ti.com/lit/ds/symlink/tl071.pdf" H 5950 4600 50  0001 C CNN
	3    5950 4600
	1    0    0    -1  
$EndComp
$Comp
L power:GND #PWR01
U 1 1 5E287F8E
P 3800 2850
F 0 "#PWR01" H 3800 2600 50  0001 C CNN
F 1 "GND" H 3805 2677 50  0000 C CNN
F 2 "" H 3800 2850 50  0001 C CNN
F 3 "" H 3800 2850 50  0001 C CNN
	1    3800 2850
	1    0    0    -1  
$EndComp
$Comp
L power:+12V #PWR06
U 1 1 5E2885E5
P 5850 4300
F 0 "#PWR06" H 5850 4150 50  0001 C CNN
F 1 "+12V" H 5865 4473 50  0000 C CNN
F 2 "" H 5850 4300 50  0001 C CNN
F 3 "" H 5850 4300 50  0001 C CNN
	1    5850 4300
	1    0    0    -1  
$EndComp
$Comp
L power:-12V #PWR07
U 1 1 5E288BEF
P 5850 4900
F 0 "#PWR07" H 5850 5000 50  0001 C CNN
F 1 "-12V" H 5865 5073 50  0000 C CNN
F 2 "" H 5850 4900 50  0001 C CNN
F 3 "" H 5850 4900 50  0001 C CNN
	1    5850 4900
	-1   0    0    1   
$EndComp
$Comp
L Connector:AudioJack2_SwitchT J5
U 1 1 5E29520A
P 7900 2450
F 0 "J5" H 7720 2429 50  0000 R CNN
F 1 "AudioJack2_SwitchT" H 7720 2384 50  0001 R CNN
F 2 "Connector_Audio:Jack_3.5mm_QingPu_WQP-PJ398SM_Vertical_CircularHoles" H 7900 2450 50  0001 C CNN
F 3 "~" H 7900 2450 50  0001 C CNN
	1    7900 2450
	-1   0    0    -1  
$EndComp
$Comp
L Connector:AudioJack2_SwitchT J1
U 1 1 5E26F143
P 2900 2500
F 0 "J1" H 2720 2479 50  0000 R CNN
F 1 "AudioJack2_SwitchT" H 2721 2524 50  0001 R CNN
F 2 "Connector_Audio:Jack_3.5mm_QingPu_WQP-PJ398SM_Vertical_CircularHoles" H 2900 2500 50  0001 C CNN
F 3 "~" H 2900 2500 50  0001 C CNN
	1    2900 2500
	1    0    0    1   
$EndComp
Wire Wire Line
	3100 2500 3800 2500
Wire Wire Line
	3800 2850 3100 2850
Wire Wire Line
	3800 2850 3800 2800
Connection ~ 3800 2850
Wire Wire Line
	3100 2600 3100 2850
Wire Wire Line
	4550 2650 4700 2650
Wire Wire Line
	3950 2650 4250 2650
$Comp
L Device:R_US R5
U 1 1 5E2F6BA8
P 5150 2050
F 0 "R5" H 5218 2096 50  0000 L CNN
F 1 "47K" H 5218 2005 50  0000 L CNN
F 2 "Resistor_THT:R_Axial_DIN0204_L3.6mm_D1.6mm_P7.62mm_Horizontal" V 5190 2040 50  0001 C CNN
F 3 "~" H 5150 2050 50  0001 C CNN
	1    5150 2050
	0    1    1    0   
$EndComp
$Comp
L Device:R_US R6
U 1 1 5E2F7953
P 5950 2650
F 0 "R6" H 6018 2696 50  0000 L CNN
F 1 "47K" H 6018 2605 50  0000 L CNN
F 2 "Resistor_THT:R_Axial_DIN0204_L3.6mm_D1.6mm_P7.62mm_Horizontal" V 5990 2640 50  0001 C CNN
F 3 "~" H 5950 2650 50  0001 C CNN
	1    5950 2650
	0    1    1    0   
$EndComp
Wire Wire Line
	4700 2650 4700 2050
Wire Wire Line
	4700 2050 5000 2050
Connection ~ 4700 2650
Wire Wire Line
	4700 2650 4900 2650
Wire Wire Line
	5500 2750 5650 2750
Wire Wire Line
	5300 2050 5650 2050
Wire Wire Line
	5650 2050 5650 2650
$Comp
L power:GND #PWR05
U 1 1 5E2F88C8
P 4800 2950
F 0 "#PWR05" H 4800 2700 50  0001 C CNN
F 1 "GND" H 4805 2777 50  0000 C CNN
F 2 "" H 4800 2950 50  0001 C CNN
F 3 "" H 4800 2950 50  0001 C CNN
	1    4800 2950
	1    0    0    -1  
$EndComp
Wire Wire Line
	4800 2950 4800 2850
Wire Wire Line
	4800 2850 4900 2850
$Comp
L Connector_Generic:Conn_02x05_Odd_Even J6
U 1 1 5E270221
P 8600 4700
F 0 "J6" H 8650 4367 50  0000 C CNN
F 1 "Conn_02x05_Odd_Even" H 8650 4366 50  0001 C CNN
F 2 "Connector_IDC:IDC-Header_2x05_P2.54mm_Vertical" H 8650 4367 50  0001 C CNN
F 3 "~" H 8600 4700 50  0001 C CNN
	1    8600 4700
	-1   0    0    1   
$EndComp
$Comp
L power:-12V #PWR014
U 1 1 5E321B16
P 8300 4900
F 0 "#PWR014" H 8300 5000 50  0001 C CNN
F 1 "-12V" H 8315 5073 50  0000 C CNN
F 2 "" H 8300 4900 50  0001 C CNN
F 3 "" H 8300 4900 50  0001 C CNN
	1    8300 4900
	-1   0    0    1   
$EndComp
$Comp
L power:-12V #PWR016
U 1 1 5E321E64
P 8800 4900
F 0 "#PWR016" H 8800 5000 50  0001 C CNN
F 1 "-12V" H 8815 5073 50  0000 C CNN
F 2 "" H 8800 4900 50  0001 C CNN
F 3 "" H 8800 4900 50  0001 C CNN
	1    8800 4900
	-1   0    0    1   
$EndComp
$Comp
L power:+12V #PWR013
U 1 1 5E3220F0
P 8300 4500
F 0 "#PWR013" H 8300 4350 50  0001 C CNN
F 1 "+12V" H 8315 4673 50  0000 C CNN
F 2 "" H 8300 4500 50  0001 C CNN
F 3 "" H 8300 4500 50  0001 C CNN
	1    8300 4500
	1    0    0    -1  
$EndComp
$Comp
L power:+12V #PWR015
U 1 1 5E322544
P 8800 4500
F 0 "#PWR015" H 8800 4350 50  0001 C CNN
F 1 "+12V" H 8815 4673 50  0000 C CNN
F 2 "" H 8800 4500 50  0001 C CNN
F 3 "" H 8800 4500 50  0001 C CNN
	1    8800 4500
	1    0    0    -1  
$EndComp
$Comp
L power:GND #PWR012
U 1 1 5E324A8C
P 8000 4900
F 0 "#PWR012" H 8000 4650 50  0001 C CNN
F 1 "GND" H 8005 4727 50  0000 C CNN
F 2 "" H 8000 4900 50  0001 C CNN
F 3 "" H 8000 4900 50  0001 C CNN
	1    8000 4900
	1    0    0    -1  
$EndComp
$Comp
L power:GND #PWR017
U 1 1 5E325109
P 9150 4900
F 0 "#PWR017" H 9150 4650 50  0001 C CNN
F 1 "GND" H 9155 4727 50  0000 C CNN
F 2 "" H 9150 4900 50  0001 C CNN
F 3 "" H 9150 4900 50  0001 C CNN
	1    9150 4900
	1    0    0    -1  
$EndComp
Wire Wire Line
	8000 4800 8300 4800
Wire Wire Line
	8300 4700 8000 4700
Wire Wire Line
	8000 4700 8000 4800
Connection ~ 8000 4800
Wire Wire Line
	8000 4800 8000 4900
Wire Wire Line
	8300 4600 8000 4600
Wire Wire Line
	8000 4600 8000 4700
Connection ~ 8000 4700
Wire Wire Line
	8800 4600 9150 4600
Wire Wire Line
	9150 4600 9150 4700
Wire Wire Line
	8800 4700 9150 4700
Connection ~ 9150 4700
Wire Wire Line
	9150 4700 9150 4800
Wire Wire Line
	8800 4800 9150 4800
Connection ~ 9150 4800
Wire Wire Line
	9150 4800 9150 4900
$Comp
L power:GND #PWR08
U 1 1 5E33B682
P 6350 2950
F 0 "#PWR08" H 6350 2700 50  0001 C CNN
F 1 "GND" H 6355 2777 50  0000 C CNN
F 2 "" H 6350 2950 50  0001 C CNN
F 3 "" H 6350 2950 50  0001 C CNN
	1    6350 2950
	1    0    0    -1  
$EndComp
Wire Wire Line
	7100 2750 7100 2450
Wire Wire Line
	7100 2450 7700 2450
Wire Wire Line
	6500 2850 6350 2850
Wire Wire Line
	6350 2850 6350 2950
Wire Wire Line
	5800 2650 5650 2650
Connection ~ 5650 2650
Wire Wire Line
	5650 2650 5650 2750
Connection ~ 7100 2450
$Comp
L Device:R_POT_US RV5
U 1 1 5E359442
P 6800 2050
F 0 "RV5" H 6733 2096 50  0000 R CNN
F 1 "25K" H 6733 2005 50  0000 R CNN
F 2 "Potentiometer_THT:Potentiometer_Alpha_RD901F-40-00D_Single_Vertical" H 6800 2050 50  0001 C CNN
F 3 "~" H 6800 2050 50  0001 C CNN
	1    6800 2050
	0    1    1    0   
$EndComp
Wire Wire Line
	7100 2050 6950 2050
Wire Wire Line
	7100 2050 7100 2450
Wire Wire Line
	6800 2200 6650 2200
Wire Wire Line
	6650 2200 6650 2050
Wire Wire Line
	6100 2650 6250 2650
Wire Wire Line
	6250 2650 6250 2050
Wire Wire Line
	6250 2050 6650 2050
Connection ~ 6250 2650
Wire Wire Line
	6250 2650 6500 2650
Connection ~ 6650 2050
$Comp
L Device:R_US R2
U 1 1 5E38F31B
P 4400 3450
F 0 "R2" H 4468 3496 50  0000 L CNN
F 1 "47K" H 4468 3405 50  0000 L CNN
F 2 "Resistor_THT:R_Axial_DIN0204_L3.6mm_D1.6mm_P7.62mm_Horizontal" V 4440 3440 50  0001 C CNN
F 3 "~" H 4400 3450 50  0001 C CNN
	1    4400 3450
	0    1    1    0   
$EndComp
$Comp
L power:GND #PWR02
U 1 1 5E38F325
P 3800 3650
F 0 "#PWR02" H 3800 3400 50  0001 C CNN
F 1 "GND" H 3805 3477 50  0000 C CNN
F 2 "" H 3800 3650 50  0001 C CNN
F 3 "" H 3800 3650 50  0001 C CNN
	1    3800 3650
	1    0    0    -1  
$EndComp
$Comp
L Connector:AudioJack2_SwitchT J2
U 1 1 5E38F32F
P 2900 3300
F 0 "J2" H 2721 3279 50  0000 R CNN
F 1 "AudioJack2_SwitchT" H 2721 3324 50  0001 R CNN
F 2 "Connector_Audio:Jack_3.5mm_QingPu_WQP-PJ398SM_Vertical_CircularHoles" H 2900 3300 50  0001 C CNN
F 3 "~" H 2900 3300 50  0001 C CNN
	1    2900 3300
	1    0    0    1   
$EndComp
$Comp
L Device:R_POT_US RV2
U 1 1 5E38F339
P 3800 3450
F 0 "RV2" H 3733 3496 50  0000 R CNN
F 1 "25K" H 3733 3405 50  0000 R CNN
F 2 "Potentiometer_THT:Potentiometer_Alpha_RD901F-40-00D_Single_Vertical" H 3800 3450 50  0001 C CNN
F 3 "~" H 3800 3450 50  0001 C CNN
	1    3800 3450
	1    0    0    1   
$EndComp
Wire Wire Line
	3100 3300 3800 3300
Wire Wire Line
	3800 3650 3100 3650
Wire Wire Line
	3800 3650 3800 3600
Connection ~ 3800 3650
Wire Wire Line
	3100 3400 3100 3650
Wire Wire Line
	4550 3450 4700 3450
Wire Wire Line
	3950 3450 4250 3450
$Comp
L Device:R_US R3
U 1 1 5E3C729C
P 4400 4300
F 0 "R3" H 4468 4346 50  0000 L CNN
F 1 "47K" H 4468 4255 50  0000 L CNN
F 2 "Resistor_THT:R_Axial_DIN0204_L3.6mm_D1.6mm_P7.62mm_Horizontal" V 4440 4290 50  0001 C CNN
F 3 "~" H 4400 4300 50  0001 C CNN
	1    4400 4300
	0    1    1    0   
$EndComp
$Comp
L power:GND #PWR03
U 1 1 5E3C72A6
P 3800 4500
F 0 "#PWR03" H 3800 4250 50  0001 C CNN
F 1 "GND" H 3805 4327 50  0000 C CNN
F 2 "" H 3800 4500 50  0001 C CNN
F 3 "" H 3800 4500 50  0001 C CNN
	1    3800 4500
	1    0    0    -1  
$EndComp
$Comp
L Connector:AudioJack2_SwitchT J3
U 1 1 5E3C72B0
P 2900 4150
F 0 "J3" H 2721 4129 50  0000 R CNN
F 1 "AudioJack2_SwitchT" H 2721 4174 50  0001 R CNN
F 2 "Connector_Audio:Jack_3.5mm_QingPu_WQP-PJ398SM_Vertical_CircularHoles" H 2900 4150 50  0001 C CNN
F 3 "~" H 2900 4150 50  0001 C CNN
	1    2900 4150
	1    0    0    1   
$EndComp
$Comp
L Device:R_POT_US RV3
U 1 1 5E3C72BA
P 3800 4300
F 0 "RV3" H 3733 4346 50  0000 R CNN
F 1 "25K" H 3733 4255 50  0000 R CNN
F 2 "Potentiometer_THT:Potentiometer_Alpha_RD901F-40-00D_Single_Vertical" H 3800 4300 50  0001 C CNN
F 3 "~" H 3800 4300 50  0001 C CNN
	1    3800 4300
	1    0    0    1   
$EndComp
Wire Wire Line
	3100 4150 3800 4150
Wire Wire Line
	3800 4500 3100 4500
Wire Wire Line
	3800 4500 3800 4450
Connection ~ 3800 4500
Wire Wire Line
	3100 4250 3100 4500
Wire Wire Line
	4550 4300 4700 4300
Wire Wire Line
	3950 4300 4250 4300
$Comp
L Device:R_US R4
U 1 1 5E3D5829
P 4400 5100
F 0 "R4" H 4468 5146 50  0000 L CNN
F 1 "47K" H 4468 5055 50  0000 L CNN
F 2 "Resistor_THT:R_Axial_DIN0204_L3.6mm_D1.6mm_P7.62mm_Horizontal" V 4440 5090 50  0001 C CNN
F 3 "~" H 4400 5100 50  0001 C CNN
	1    4400 5100
	0    1    1    0   
$EndComp
$Comp
L power:GND #PWR04
U 1 1 5E3D5833
P 3800 5300
F 0 "#PWR04" H 3800 5050 50  0001 C CNN
F 1 "GND" H 3805 5127 50  0000 C CNN
F 2 "" H 3800 5300 50  0001 C CNN
F 3 "" H 3800 5300 50  0001 C CNN
	1    3800 5300
	1    0    0    -1  
$EndComp
$Comp
L Connector:AudioJack2_SwitchT J4
U 1 1 5E3D583D
P 2900 4950
F 0 "J4" H 2721 4929 50  0000 R CNN
F 1 "AudioJack2_SwitchT" H 2721 4974 50  0001 R CNN
F 2 "Connector_Audio:Jack_3.5mm_QingPu_WQP-PJ398SM_Vertical_CircularHoles" H 2900 4950 50  0001 C CNN
F 3 "~" H 2900 4950 50  0001 C CNN
	1    2900 4950
	1    0    0    1   
$EndComp
$Comp
L Device:R_POT_US RV4
U 1 1 5E3D5847
P 3800 5100
F 0 "RV4" H 3733 5146 50  0000 R CNN
F 1 "25K" H 3733 5055 50  0000 R CNN
F 2 "Potentiometer_THT:Potentiometer_Alpha_RD901F-40-00D_Single_Vertical" H 3800 5100 50  0001 C CNN
F 3 "~" H 3800 5100 50  0001 C CNN
	1    3800 5100
	1    0    0    1   
$EndComp
Wire Wire Line
	3100 4950 3800 4950
Wire Wire Line
	3800 5300 3100 5300
Wire Wire Line
	3800 5300 3800 5250
Connection ~ 3800 5300
Wire Wire Line
	3100 5050 3100 5300
Wire Wire Line
	4550 5100 4700 5100
Wire Wire Line
	3950 5100 4250 5100
Wire Wire Line
	4700 2650 4700 3450
Wire Wire Line
	4700 3450 4700 4300
Connection ~ 4700 3450
Wire Wire Line
	4700 4300 4700 5100
Connection ~ 4700 4300
$Comp
L Device:C C1
U 1 1 5E432E29
P 6350 4450
F 0 "C1" H 6465 4496 50  0000 L CNN
F 1 "100n" H 6465 4405 50  0000 L CNN
F 2 "Capacitor_THT:C_Rect_L10.0mm_W3.0mm_P7.50mm_FKS3_FKP3" H 6388 4300 50  0001 C CNN
F 3 "~" H 6350 4450 50  0001 C CNN
	1    6350 4450
	1    0    0    -1  
$EndComp
$Comp
L Device:CP1 C3
U 1 1 5E434232
P 7100 4450
F 0 "C3" H 7215 4496 50  0000 L CNN
F 1 "47u" H 7215 4405 50  0000 L CNN
F 2 "Capacitor_THT:CP_Radial_D5.0mm_P2.00mm" H 7100 4450 50  0001 C CNN
F 3 "~" H 7100 4450 50  0001 C CNN
	1    7100 4450
	1    0    0    -1  
$EndComp
Wire Wire Line
	6350 4300 7100 4300
Wire Wire Line
	6350 4600 7100 4600
$Comp
L power:GND #PWR09
U 1 1 5E444214
P 7100 4600
F 0 "#PWR09" H 7100 4350 50  0001 C CNN
F 1 "GND" H 7105 4427 50  0000 C CNN
F 2 "" H 7100 4600 50  0001 C CNN
F 3 "" H 7100 4600 50  0001 C CNN
	1    7100 4600
	1    0    0    -1  
$EndComp
Connection ~ 7100 4600
Wire Wire Line
	6350 4300 5850 4300
Connection ~ 6350 4300
Connection ~ 5850 4300
$Comp
L Device:C C2
U 1 1 5E464EE6
P 6350 5050
F 0 "C2" H 6465 5096 50  0000 L CNN
F 1 "100n" H 6465 5005 50  0000 L CNN
F 2 "Capacitor_THT:C_Rect_L10.0mm_W3.0mm_P7.50mm_FKS3_FKP3" H 6388 4900 50  0001 C CNN
F 3 "~" H 6350 5050 50  0001 C CNN
	1    6350 5050
	1    0    0    -1  
$EndComp
$Comp
L Device:CP1 C4
U 1 1 5E464EF0
P 7100 5050
F 0 "C4" H 6950 5000 50  0000 R CNN
F 1 "47u" H 6950 5100 50  0000 R CNN
F 2 "Capacitor_THT:CP_Radial_D5.0mm_P2.00mm" H 7100 5050 50  0001 C CNN
F 3 "~" H 7100 5050 50  0001 C CNN
	1    7100 5050
	-1   0    0    1   
$EndComp
Wire Wire Line
	6350 4900 7100 4900
Wire Wire Line
	6350 5200 7100 5200
$Comp
L power:GND #PWR010
U 1 1 5E464EFC
P 7100 5200
F 0 "#PWR010" H 7100 4950 50  0001 C CNN
F 1 "GND" H 7105 5027 50  0000 C CNN
F 2 "" H 7100 5200 50  0001 C CNN
F 3 "" H 7100 5200 50  0001 C CNN
	1    7100 5200
	1    0    0    -1  
$EndComp
Connection ~ 7100 5200
Wire Wire Line
	6350 4900 5850 4900
Connection ~ 6350 4900
Connection ~ 5850 4900
$Comp
L power:GND #PWR011
U 1 1 5E282B4E
P 7550 2650
F 0 "#PWR011" H 7550 2400 50  0001 C CNN
F 1 "GND" H 7555 2477 50  0000 C CNN
F 2 "" H 7550 2650 50  0001 C CNN
F 3 "" H 7550 2650 50  0001 C CNN
	1    7550 2650
	1    0    0    -1  
$EndComp
Wire Wire Line
	7700 2550 7550 2550
Wire Wire Line
	7550 2550 7550 2650
$Comp
L Device:R_POT_US RV1
U 1 1 5E26E91A
P 3800 2650
F 0 "RV1" H 3733 2696 50  0000 R CNN
F 1 "25K" H 3733 2605 50  0000 R CNN
F 2 "Potentiometer_THT:Potentiometer_Alpha_RD901F-40-00D_Single_Vertical" H 3800 2650 50  0001 C CNN
F 3 "~" H 3800 2650 50  0001 C CNN
	1    3800 2650
	1    0    0    1   
$EndComp
$EndSCHEMATC
